1 10 20
100 200 125
201 210 89
900 1000 174
10 5 20
5 5 6
56 39284 324
23 348 144
589 3920 238
384 1256 182
32 5958 238
483 5893 238
5890 10854 262
4843 9486 262
485 500 142
3948 4878 215
103 504 144
320 405 144
605 985 179
901 2843 209
1039 3984 238
493 2384 183
234 599 144
10 549 144
345 4903 238
1 5464 238
100 348 144
43 3234 217
9483 100000 351
5869 20048 279
34 375403 443
2374 9605 262
46 3759 238
4857 23445 279
345 39405 324
48594 10394 324
203 4956 238
958 23444 279
1 4 8
6 100 119
904 304302 443
3958 39023 324
4859 1903 238
30 4584 238
9845 33456 308
4890 284334 443
354 42093 324
589 392045 443
10 34 112
5948 92809 351
906 38492 324
582 48593 324
21 3849 238
950 4893 238
304 5894 238
4892 58940 340
204 304 128
598 1904 182
2 20 21
49 48920 324
560 3849 238
293 5890 238
348 59403 340
188 395803 443
8234 12345 268
349 3985 238
1039 58940 340
54 100 119
5894 30498 308
48 29304 308
487 38279 324
504 2838 209
485 3892 238
30 3903 238
59 1094 179
9 39 112
3 599 144
493 2930 217
709 89308 351
39 34890 311
90 18934 279
89 48374 324
54 45783 324
342 384 126
384 2901 209
584 4589 238
38 29308 308
499999 501276 364
512848 538964 439
520945 529345 408
539847 558237 452
559847 562083 359
572093 582093 390
579347 583740 328
591873 619874 447
610923 620945 447
623459 630958 509
630934 640283 416
642934 672341 442
650938 660837 429
639871 692810 442
672093 682083 385
690238 798345 504
710823 720945 411
720837 731937 411
730234 740983 424
740934 750293 393
750198 761092 424
772348 777729 437
781827 781293 318
791093 802398 468
708371 782394 468
802874 810945 406
810239 838173 525
830912 841081 525
859845 862093 357
861092 870192 388
882908 892304 445
829348 872109 525
902837 912049 476
910934 930293 476
940923 952093 414
960923 980239 458
982387 999892 440
583759 672093 509
939128 950934 507
971938 999999 440
287347 438917 449
198237 799273 509
179827 298471 443
287482 719827 509
482739 198274 449
981273 991828 427
901738 901874 277
198273 482938 449
298375 398472 441
791827 872802 525
187298 209384 373
182798 230934 443
240598 460982 449
183048 283749 443
198274 829182 509
191827 209837 373
892837 940983 507
673098 928374 525
198274 598374 470
983742 989993 427
182748 391829 443
198348 294179 443
909837 972819 507
482937 572039 470
287403 319280 389
348750 360928 410
298375 439827 449
783092 928374 525
182748 298398 443
