1 10 20
100 200 125
201 210 89
900 1000 174
100 300 128
100 100 26
23 1 21
20 10 21
5 9 20
24 24 11
23 45 112
12 23 21
1000 2000 182
978 999 143
250 500 144
245 9 128
45 900 179
2000 10 182
5 25 24
98 99 26
13 80 116
112 45 119
50 49 25
89 900 179
304 200 128
975 1999 182
2001 2022 144
104 270 128
57 90 116
207 200 89
65 97 119
300 23 128
27 90 116
91 26 116
450 200 144
58 32 113
400 483 134
2478 92 209
780 25 171
256 562 144
133 67 122
4389 84 238
473 48 144
342 52 144
32 232 128
5 278 128
78 987 179
2 900 179
734 267 171
173 89 125
163 879 179
453 98 144
2346 267 183
237 39 128
762 389 171
361 470 134
1673 598 182
67 2849 209
1687 239 182
895 16 179
164 2834 209
2798 182 209
95 841 171
49 23 112
23 83 116
483 38 144
84 32 116
944 32 179
582 10 144
482 923 179
483 524 142
752 12 171
842 12 171
964 752 179
572 23 144
38 49 110
483 38 144
423 239 144
584 293 144
52 428 144
58 34 113
42 52 105
582 932 179
585 824 171
684 29 145
582 90 144
183 458 144
745 123 171
483 587 142
529 279 144
74 34 116
572 395 142
1024 2060 182
64 8 113
12 30 112
459 942 179
1744 548 182
2084 1203 180
2093 2849 209
2549 92 209
229 1418 182
841 432 171
439 1031 179
841 925 179
205 492 144
82 1 116
12 1 20
1453 24 182
582 93 144
583 392 142
649 258 145
253 88 128
834 213 171
82 56 116
384 438 134
58 3 113
485 3 144
2 5 8
47 9 112
834 2 171
294 540 144
348 78 144
384 23 144
1390 2304 183
439 2490 209
842 284 171
385 593 142
583 83 144
853 835 135
248 58 128
384 843 171
824 924 179
248 294 123
2 9 20
40 78 116
843 20 171
20 19 21
923 12 179
193 13 125
239 29 128
49 7 112
64 8 113
81 9 116
129 482 144
82 238 128
924 223 179
495 22 144
593 12 144
591 947 179
832 527 171
283 23 128
94 3 116
978 33 179
843 150 171
151 129 122
382 1040 179
1493 2091 180
138 483 144
1834 38 182
138 3 122
924 4 179
285 13 128
139 84 122
1385 692 182
922 1909 182
1 1 1
10 10 7
1200 1200 19
78 78 36
