..............................
----------------------------------------------------------------------
Ran 30 tests in 1.794s

OK
Name             Stmts   Miss Branch BrPart  Cover   Missing
------------------------------------------------------------
Collatz.py          46      0     14      0   100%
TestCollatz.py     138      0      2      0   100%
------------------------------------------------------------
TOTAL              184      0     16      0   100%
